; ModuleID = './multBBMultReturn.c'
source_filename = "./multBBMultReturn.c"
target datalayout = "e-m:o-i64:64-f80:128-n8:16:32:64-S128"
target triple = "x86_64-apple-macosx10.12.0"

; Function Attrs: nounwind ssp uwtable
define i32 @foo() #0 {
  %1 = alloca i32, align 4
  %2 = alloca i32, align 4
  %3 = alloca i32, align 4
  %4 = alloca i32, align 4
  %5 = alloca i32, align 4
  %6 = alloca i32, align 4
  %7 = alloca i32, align 4
  %8 = alloca i32, align 4
  %9 = alloca i32, align 4
  %10 = alloca i32, align 4
  %11 = alloca i32, align 4
  %12 = alloca i32, align 4
  %13 = alloca i32, align 4
  store i32 7, i32* %2, align 4
  %14 = load i32, i32* %2, align 4
  %15 = mul nsw i32 %14, 2
  store i32 %15, i32* %3, align 4
  %16 = load i32, i32* %3, align 4
  %17 = load i32, i32* %2, align 4
  %18 = sub nsw i32 %16, %17
  store i32 %18, i32* %4, align 4
  %19 = load i32, i32* %4, align 4
  %20 = load i32, i32* %2, align 4
  %21 = sdiv i32 %19, %20
  store i32 %21, i32* %5, align 4
  %22 = load i32, i32* %2, align 4
  %23 = icmp ne i32 %22, 0
  br i1 %23, label %24, label %34

; <label>:24:                                     ; preds = %0
  store i32 8, i32* %6, align 4
  %25 = load i32, i32* %6, align 4
  %26 = mul nsw i32 %25, 3
  store i32 %26, i32* %7, align 4
  %27 = load i32, i32* %7, align 4
  %28 = load i32, i32* %6, align 4
  %29 = sub nsw i32 %27, %28
  store i32 %29, i32* %8, align 4
  %30 = load i32, i32* %8, align 4
  %31 = load i32, i32* %6, align 4
  %32 = sdiv i32 %30, %31
  store i32 %32, i32* %9, align 4
  %33 = load i32, i32* %7, align 4
  store i32 %33, i32* %1, align 4
  br label %44

; <label>:34:                                     ; preds = %0
  store i32 9, i32* %10, align 4
  %35 = load i32, i32* %10, align 4
  %36 = mul nsw i32 %35, 4
  store i32 %36, i32* %11, align 4
  %37 = load i32, i32* %11, align 4
  %38 = load i32, i32* %10, align 4
  %39 = sub nsw i32 %37, %38
  store i32 %39, i32* %12, align 4
  %40 = load i32, i32* %12, align 4
  %41 = load i32, i32* %10, align 4
  %42 = sdiv i32 %40, %41
  store i32 %42, i32* %13, align 4
  %43 = load i32, i32* %11, align 4
  store i32 %43, i32* %1, align 4
  br label %44

; <label>:44:                                     ; preds = %34, %24
  %45 = load i32, i32* %1, align 4
  ret i32 %45
}

attributes #0 = { nounwind ssp uwtable "correctly-rounded-divide-sqrt-fp-math"="false" "disable-tail-calls"="false" "less-precise-fpmad"="false" "no-frame-pointer-elim"="true" "no-frame-pointer-elim-non-leaf" "no-infs-fp-math"="false" "no-jump-tables"="false" "no-nans-fp-math"="false" "no-signed-zeros-fp-math"="false" "no-trapping-math"="false" "stack-protector-buffer-size"="8" "target-cpu"="core2" "target-features"="+cx16,+fxsr,+mmx,+sse,+sse2,+sse3,+ssse3,+x87" "unsafe-fp-math"="false" "use-soft-float"="false" }

!llvm.module.flags = !{!0}
!llvm.ident = !{!1}

!0 = !{i32 1, !"PIC Level", i32 2}
!1 = !{!"clang version 4.0.0 (https://github.com/spiderpete/clang.git 8a6ea813424dabc71bf4514942e487bd0268a317) (https://github.com/spiderpete/llvm.git c170429d499f008b204e15cb7a6ef9d45e309d1f)"}
