; ModuleID = './whileLoopComplex.c'
source_filename = "./whileLoopComplex.c"
target datalayout = "e-m:o-i64:64-f80:128-n8:16:32:64-S128"
target triple = "x86_64-apple-macosx10.12.0"

; Function Attrs: nounwind ssp uwtable
define i32 @foo() #0 {
  %1 = alloca i32, align 4
  %2 = alloca i32, align 4
  %3 = alloca i32, align 4
  %4 = alloca i32, align 4
  %5 = alloca i32, align 4
  store i32 0, i32* %1, align 4
  br label %6

; <label>:6:                                      ; preds = %14, %0
  %7 = load i32, i32* %1, align 4
  %8 = add nsw i32 %7, 1
  store i32 %8, i32* %3, align 4
  %9 = load i32, i32* %4, align 4
  %10 = load i32, i32* %3, align 4
  %11 = add nsw i32 %9, %10
  store i32 %11, i32* %4, align 4
  %12 = load i32, i32* %3, align 4
  %13 = mul nsw i32 %12, 2
  store i32 %13, i32* %5, align 4
  br label %14

; <label>:14:                                     ; preds = %6
  %15 = load i32, i32* %1, align 4
  %16 = icmp slt i32 %15, 9
  br i1 %16, label %6, label %17

; <label>:17:                                     ; preds = %14
  %18 = load i32, i32* %2, align 4
  ret i32 %18
}

attributes #0 = { nounwind ssp uwtable "correctly-rounded-divide-sqrt-fp-math"="false" "disable-tail-calls"="false" "less-precise-fpmad"="false" "no-frame-pointer-elim"="true" "no-frame-pointer-elim-non-leaf" "no-infs-fp-math"="false" "no-jump-tables"="false" "no-nans-fp-math"="false" "no-signed-zeros-fp-math"="false" "no-trapping-math"="false" "stack-protector-buffer-size"="8" "target-cpu"="core2" "target-features"="+cx16,+fxsr,+mmx,+sse,+sse2,+sse3,+ssse3,+x87" "unsafe-fp-math"="false" "use-soft-float"="false" }

!llvm.module.flags = !{!0}
!llvm.ident = !{!1}

!0 = !{i32 1, !"PIC Level", i32 2}
!1 = !{!"clang version 4.0.0 (https://github.com/spiderpete/clang.git 8a6ea813424dabc71bf4514942e487bd0268a317) (https://github.com/spiderpete/llvm.git c170429d499f008b204e15cb7a6ef9d45e309d1f)"}
